[
	{
		"Email": "libero.at@et.edu",
		"Adresse": "Appartement 688-2092 Ut Avenue",
		"Ville": "Raiganj",
		"PIN": "6979"
	},
	{
		"Email": "rutrum@metuseu.net",
		"Adresse": "CP 722, 6279 Amet Impasse",
		"Ville": "Jauchelette",
		"PIN": "5500"
	},
	{
		"Email": "ligula.Aenean@nequevitaesemper.co.uk",
		"Adresse": "3589 Eget Rd.",
		"Ville": "Zutphen",
		"PIN": "8246"
	},
	{
		"Email": "Sed.congue.elit@velfaucibusid.org",
		"Adresse": "CP 950, 2206 Velit Ave",
		"Ville": "Heule",
		"PIN": "8529"
	},
	{
		"Email": "tellus.Phasellus@elementum.co.uk",
		"Adresse": "Appartement 157-5342 Curabitur Chemin",
		"Ville": "Corroy-le-Ch‰teau",
		"PIN": "9705"
	},
	{
		"Email": "mollis@semperpretiumneque.edu",
		"Adresse": "557-4884 Laoreet, Av.",
		"Ville": "Biała Podlaska",
		"PIN": "9037"
	},
	{
		"Email": "convallis@magnaNam.co.uk",
		"Adresse": "CP 379, 6878 Gravida Rue",
		"Ville": "Somma Lombardo",
		"PIN": "1998"
	},
	{
		"Email": "sit.amet.ultricies@liberoest.edu",
		"Adresse": "Appartement 593-2882 Natoque Av.",
		"Ville": "Piancastagnaio",
		"PIN": "3344"
	},
	{
		"Email": "magna.Nam.ligula@eleifendvitaeerat.org",
		"Adresse": "2973 Metus Rue",
		"Ville": "Waterbury",
		"PIN": "5475"
	},
	{
		"Email": "Quisque@velsapienimperdiet.ca",
		"Adresse": "CP 615, 9280 Ut Chemin",
		"Ville": "Haridwar",
		"PIN": "6223"
	},
	{
		"Email": "dignissim.tempor.arcu@non.edu",
		"Adresse": "Appartement 378-155 Nec Avenue",
		"Ville": "Chestermere",
		"PIN": "1166"
	},
	{
		"Email": "lorem@tristique.co.uk",
		"Adresse": "105-1334 Enim Rue",
		"Ville": "Tiarno di Sopra",
		"PIN": "9489"
	},
	{
		"Email": "eros.Proin@aauctornon.ca",
		"Adresse": "3319 Molestie. Impasse",
		"Ville": "Blehen",
		"PIN": "1154"
	},
	{
		"Email": "penatibus@Integer.ca",
		"Adresse": "Appartement 486-8984 Sagittis Avenue",
		"Ville": "Waterbury",
		"PIN": "2164"
	},
	{
		"Email": "et@massa.ca",
		"Adresse": "CP 879, 5447 Semper, Route",
		"Ville": "Sunset Point",
		"PIN": "5822"
	},
	{
		"Email": "pharetra.ut.pharetra@leoCrasvehicula.ca",
		"Adresse": "CP 514, 8319 Hymenaeos. Chemin",
		"Ville": "Pievepelago",
		"PIN": "8001"
	},
	{
		"Email": "a.sollicitudin@sitamet.net",
		"Adresse": "463-2780 Dui. Rue",
		"Ville": "Rimbey",
		"PIN": "1666"
	},
	{
		"Email": "Morbi.sit@nuncsit.edu",
		"Adresse": "CP 684, 7026 Non Route",
		"Ville": "Stokkem",
		"PIN": "9194"
	},
	{
		"Email": "nec.tellus.Nunc@tinciduntnunc.com",
		"Adresse": "3768 Tincidunt Chemin",
		"Ville": "Fort Collins",
		"PIN": "3222"
	},
	{
		"Email": "placerat@nonlorem.net",
		"Adresse": "CP 457, 1371 Per Rd.",
		"Ville": "Dalcahue",
		"PIN": "1926"
	},
	{
		"Email": "dolor.egestas@nasceturridiculusmus.net",
		"Adresse": "6960 Eleifend Av.",
		"Ville": "Albagiara",
		"PIN": "8038"
	},
	{
		"Email": "turpis@tinciduntneque.com",
		"Adresse": "3664 Ultrices. Ave",
		"Ville": "Pamel",
		"PIN": "4096"
	},
	{
		"Email": "augue.ac@magnaSedeu.edu",
		"Adresse": "560-2133 Consectetuer Ave",
		"Ville": "Hampstead",
		"PIN": "5368"
	},
	{
		"Email": "In.nec@arcuCurabiturut.net",
		"Adresse": "Appartement 590-3438 Congue Route",
		"Ville": "Vitrival",
		"PIN": "2830"
	},
	{
		"Email": "Nulla@atfringillapurus.org",
		"Adresse": "CP 443, 3023 Ornare. Avenue",
		"Ville": "Tokoroa",
		"PIN": "6173"
	},
	{
		"Email": "nulla.ante.iaculis@Quisque.com",
		"Adresse": "Appartement 181-9284 Ligula. Chemin",
		"Ville": "Camaçari",
		"PIN": "2280"
	},
	{
		"Email": "eget.odio.Aliquam@velitduisemper.edu",
		"Adresse": "CP 364, 2566 Sed Ave",
		"Ville": "Cisterna di Latina",
		"PIN": "8506"
	},
	{
		"Email": "dapibus@bibendum.edu",
		"Adresse": "CP 259, 9025 Lorem Rd.",
		"Ville": "Ch‰tillon",
		"PIN": "3188"
	},
	{
		"Email": "mi.eleifend.egestas@eleifend.net",
		"Adresse": "3249 Porttitor Avenue",
		"Ville": "Wolfsburg",
		"PIN": "3105"
	},
	{
		"Email": "purus@sitametornare.org",
		"Adresse": "Appartement 627-9866 Amet Rd.",
		"Ville": "Cornwall",
		"PIN": "9564"
	},
	{
		"Email": "tristique@semmolestie.net",
		"Adresse": "Appartement 987-4556 Pharetra Avenue",
		"Ville": "Pugwash",
		"PIN": "3840"
	},
	{
		"Email": "diam.luctus.lobortis@nuncInat.edu",
		"Adresse": "Appartement 147-4507 Torquent Impasse",
		"Ville": "Fumal",
		"PIN": "4763"
	},
	{
		"Email": "lacinia.vitae@aenim.ca",
		"Adresse": "878-9308 Vitae Impasse",
		"Ville": "Francavilla in Sinni",
		"PIN": "3236"
	},
	{
		"Email": "mi.lacinia@anteipsumprimis.edu",
		"Adresse": "844-5426 Purus Impasse",
		"Ville": "Mâcon",
		"PIN": "3433"
	},
	{
		"Email": "facilisis.Suspendisse@id.edu",
		"Adresse": "Appartement 287-3688 Tincidunt Av.",
		"Ville": "Altavilla Irpina",
		"PIN": "7339"
	},
	{
		"Email": "vitae@sem.com",
		"Adresse": "9858 Tempus Ave",
		"Ville": "Natales",
		"PIN": "3514"
	},
	{
		"Email": "in.hendrerit@lobortisaugue.ca",
		"Adresse": "Appartement 180-4854 Malesuada Avenue",
		"Ville": "Bleid",
		"PIN": "9899"
	},
	{
		"Email": "Sed@Proinvel.net",
		"Adresse": "CP 820, 1943 Ligula. Avenue",
		"Ville": "Morro Reatino",
		"PIN": "7585"
	},
	{
		"Email": "ligula.Aliquam.erat@vehicula.org",
		"Adresse": "CP 305, 8667 Consectetuer Av.",
		"Ville": "Nanaimo",
		"PIN": "7637"
	},
	{
		"Email": "Sed.et@luctusutpellentesque.net",
		"Adresse": "CP 441, 7788 Nunc Av.",
		"Ville": "Beaconsfield",
		"PIN": "2684"
	},
	{
		"Email": "vestibulum.Mauris@erat.co.uk",
		"Adresse": "329-7420 Convallis Route",
		"Ville": "Orai",
		"PIN": "4057"
	},
	{
		"Email": "ut@sedleoCras.ca",
		"Adresse": "Appartement 567-3995 Lorem, Rue",
		"Ville": "Saint-Denis-Bovesse",
		"PIN": "7385"
	},
	{
		"Email": "sed@utaliquamiaculis.co.uk",
		"Adresse": "Appartement 409-4309 Ornare Route",
		"Ville": "Chile Chico",
		"PIN": "6996"
	},
	{
		"Email": "mus.Aenean.eget@Curae.org",
		"Adresse": "CP 933, 2910 Vitae, Rue",
		"Ville": "Chépica",
		"PIN": "6256"
	},
	{
		"Email": "eros@scelerisque.com",
		"Adresse": "9338 Posuere, Av.",
		"Ville": "Uppingham. Cottesmore",
		"PIN": "8422"
	},
	{
		"Email": "at@semperNam.net",
		"Adresse": "CP 956, 4459 Praesent Av.",
		"Ville": "Castellina in Chianti",
		"PIN": "5377"
	},
	{
		"Email": "adipiscing.elit.Curabitur@Crassedleo.edu",
		"Adresse": "CP 891, 4121 Est Avenue",
		"Ville": "Manchester",
		"PIN": "8322"
	},
	{
		"Email": "sollicitudin.commodo@mauris.edu",
		"Adresse": "185 Consectetuer Chemin",
		"Ville": "Steenokkerzeel",
		"PIN": "6117"
	},
	{
		"Email": "nunc@aliquetProin.edu",
		"Adresse": "CP 617, 1150 Id Impasse",
		"Ville": "Dilsen-Stokkem",
		"PIN": "3731"
	},
	{
		"Email": "et@consectetuermaurisid.org",
		"Adresse": "Appartement 654-129 Nunc Ave",
		"Ville": "Alajuela",
		"PIN": "5742"
	},
	{
		"Email": "dui.augue@justofaucibuslectus.net",
		"Adresse": "588-5291 Nunc. Rd.",
		"Ville": "Welland",
		"PIN": "5905"
	},
	{
		"Email": "fermentum.risus.at@ipsumleo.com",
		"Adresse": "8395 Nam Ave",
		"Ville": "Chiari",
		"PIN": "6585"
	},
	{
		"Email": "quam@auguemalesuadamalesuada.com",
		"Adresse": "2434 Amet Rue",
		"Ville": "Tampa",
		"PIN": "7923"
	},
	{
		"Email": "natoque@vulputatemaurissagittis.edu",
		"Adresse": "4540 Libero. Route",
		"Ville": "Gaasbeek",
		"PIN": "9619"
	},
	{
		"Email": "faucibus@leoinlobortis.ca",
		"Adresse": "304-2818 Phasellus Avenue",
		"Ville": "La Ligua",
		"PIN": "8926"
	},
	{
		"Email": "tincidunt@viverraDonec.ca",
		"Adresse": "Appartement 403-9785 Congue Av.",
		"Ville": "Nancagua",
		"PIN": "9310"
	},
	{
		"Email": "Aliquam.fringilla.cursus@vestibulum.net",
		"Adresse": "1310 Et Av.",
		"Ville": "Vorst",
		"PIN": "3827"
	},
	{
		"Email": "magna@urnaVivamusmolestie.org",
		"Adresse": "8523 Elit, Rue",
		"Ville": "Brest",
		"PIN": "1114"
	},
	{
		"Email": "Aliquam.fringilla@vel.org",
		"Adresse": "Appartement 612-9234 Tortor. Chemin",
		"Ville": "Longaví",
		"PIN": "5116"
	},
	{
		"Email": "magna@arcuVestibulum.net",
		"Adresse": "Appartement 936-209 Fringilla. Rue",
		"Ville": "Osogbo",
		"PIN": "2224"
	},
	{
		"Email": "sociis.natoque@loremvehiculaet.net",
		"Adresse": "2076 Maecenas Av.",
		"Ville": "Bella",
		"PIN": "7931"
	},
	{
		"Email": "sit@et.edu",
		"Adresse": "CP 635, 1948 Vel Chemin",
		"Ville": "Hay River",
		"PIN": "7491"
	},
	{
		"Email": "Suspendisse@eratsemperrutrum.org",
		"Adresse": "675-7029 A Ave",
		"Ville": "Sagamu",
		"PIN": "2281"
	},
	{
		"Email": "semper.auctor@Suspendissenonleo.org",
		"Adresse": "5410 Sed Rd.",
		"Ville": "Castelbianco",
		"PIN": "5446"
	},
	{
		"Email": "amet.diam.eu@ante.edu",
		"Adresse": "6451 Nunc Ave",
		"Ville": "Halen",
		"PIN": "9319"
	},
	{
		"Email": "amet.consectetuer.adipiscing@ultriciesadipiscing.com",
		"Adresse": "CP 518, 8322 Vitae, Impasse",
		"Ville": "Sagrada Familia",
		"PIN": "9817"
	},
	{
		"Email": "dictum.sapien@id.edu",
		"Adresse": "CP 210, 5066 Lorem, Av.",
		"Ville": "Porvenir",
		"PIN": "3489"
	},
	{
		"Email": "ligula.consectetuer.rhoncus@ametdapibus.co.uk",
		"Adresse": "423-1677 Tincidunt Chemin",
		"Ville": "Colchester",
		"PIN": "3656"
	},
	{
		"Email": "risus@placerat.com",
		"Adresse": "Appartement 739-5624 Egestas. Av.",
		"Ville": "Harrison Hot Springs",
		"PIN": "7540"
	},
	{
		"Email": "aliquam@magnaSed.net",
		"Adresse": "9834 Aliquam, Rd.",
		"Ville": "Nederhasselt",
		"PIN": "7036"
	},
	{
		"Email": "nibh.Quisque@blanditmattisCras.ca",
		"Adresse": "Appartement 662-1364 Duis Rue",
		"Ville": "Gary",
		"PIN": "7673"
	},
	{
		"Email": "fermentum@duisemperet.org",
		"Adresse": "Appartement 320-6193 Suspendisse Impasse",
		"Ville": "Lachine",
		"PIN": "9501"
	},
	{
		"Email": "bibendum@augueeutempor.edu",
		"Adresse": "521-5708 Mauris, Chemin",
		"Ville": "Calais",
		"PIN": "8541"
	},
	{
		"Email": "vestibulum.lorem@consectetuercursus.com",
		"Adresse": "5069 Mauris Avenue",
		"Ville": "Polino",
		"PIN": "7216"
	},
	{
		"Email": "eleifend.Cras.sed@vitae.org",
		"Adresse": "Appartement 247-2055 Dui, Avenue",
		"Ville": "Blue Mountains",
		"PIN": "3142"
	},
	{
		"Email": "nibh.sit@molestie.com",
		"Adresse": "4545 Sit Chemin",
		"Ville": "Antakya",
		"PIN": "7890"
	},
	{
		"Email": "Nunc.ut.erat@sitametdapibus.org",
		"Adresse": "584-7786 Enim. Av.",
		"Ville": "Ninhue",
		"PIN": "6265"
	},
	{
		"Email": "volutpat@imperdietnecleo.org",
		"Adresse": "CP 171, 7545 Lorem, Av.",
		"Ville": "Cache Creek",
		"PIN": "7915"
	},
	{
		"Email": "at@egetvenenatisa.co.uk",
		"Adresse": "CP 368, 2969 Mi Route",
		"Ville": "St. Andrä",
		"PIN": "8701"
	},
	{
		"Email": "Vivamus.molestie@tincidunt.org",
		"Adresse": "915-5400 Magna Rue",
		"Ville": "Reinbek",
		"PIN": "9971"
	},
	{
		"Email": "pede@nec.net",
		"Adresse": "5676 Lobortis Rd.",
		"Ville": "Vreren",
		"PIN": "2404"
	},
	{
		"Email": "senectus.et@semegetmassa.org",
		"Adresse": "CP 282, 3926 Vulputate, Av.",
		"Ville": "Naperville",
		"PIN": "5024"
	},
	{
		"Email": "nonummy@diamlorem.org",
		"Adresse": "3469 Sed Rue",
		"Ville": "Nakusp",
		"PIN": "5629"
	},
	{
		"Email": "ipsum.Suspendisse@Utnecurna.edu",
		"Adresse": "8676 Pellentesque Chemin",
		"Ville": "Crato",
		"PIN": "4194"
	},
	{
		"Email": "mauris.erat@eu.org",
		"Adresse": "137-3167 Dui Avenue",
		"Ville": "Coaldale",
		"PIN": "2235"
	},
	{
		"Email": "tellus@vel.edu",
		"Adresse": "Appartement 494-6361 Risus. Rue",
		"Ville": "Camaragibe",
		"PIN": "6871"
	},
	{
		"Email": "vitae.dolor.Donec@arcuVivamus.co.uk",
		"Adresse": "9508 Auctor, Rd.",
		"Ville": "Newtonmore",
		"PIN": "4022"
	},
	{
		"Email": "eget.varius.ultrices@duiSuspendisseac.net",
		"Adresse": "Appartement 617-8040 Ipsum Impasse",
		"Ville": "Canoas",
		"PIN": "7636"
	},
	{
		"Email": "et.ultrices@scelerisque.com",
		"Adresse": "CP 606, 766 Faucibus. Av.",
		"Ville": "Strathcona County",
		"PIN": "5907"
	},
	{
		"Email": "Nunc@congueturpis.edu",
		"Adresse": "249-187 Eget, Rd.",
		"Ville": "Buguma",
		"PIN": "7494"
	},
	{
		"Email": "nunc.ullamcorper.eu@diam.co.uk",
		"Adresse": "975 Erat Impasse",
		"Ville": "Dendermonde",
		"PIN": "7461"
	},
	{
		"Email": "iaculis@Seddiam.co.uk",
		"Adresse": "504-6016 Magna Chemin",
		"Ville": "Placilla",
		"PIN": "9680"
	},
	{
		"Email": "ultrices.Vivamus@Crasdolor.edu",
		"Adresse": "Appartement 820-4815 Nunc Ave",
		"Ville": "Westlock",
		"PIN": "8372"
	},
	{
		"Email": "aptent.taciti@nisisemsemper.com",
		"Adresse": "6706 Convallis Ave",
		"Ville": "Seattle",
		"PIN": "1116"
	},
	{
		"Email": "vitae.aliquam@Cum.ca",
		"Adresse": "375-8797 Eget Rd.",
		"Ville": "Butte",
		"PIN": "8719"
	},
	{
		"Email": "amet.ornare@commodoipsumSuspendisse.ca",
		"Adresse": "1017 Nibh Rd.",
		"Ville": "Linz",
		"PIN": "5160"
	},
	{
		"Email": "lobortis@eget.co.uk",
		"Adresse": "2112 Tincidunt Ave",
		"Ville": "Genk",
		"PIN": "2851"
	},
	{
		"Email": "ipsum@sapienmolestieorci.edu",
		"Adresse": "CP 989, 4049 Aenean Rd.",
		"Ville": "Recklinghausen",
		"PIN": "9553"
	},
	{
		"Email": "ornare.Fusce.mollis@Quisquepurus.edu",
		"Adresse": "CP 566, 4345 Quisque Route",
		"Ville": "Fishguard",
		"PIN": "7386"
	},
	{
		"Email": "facilisis@sed.org",
		"Adresse": "CP 513, 6077 Phasellus Rd.",
		"Ville": "Stilo",
		"PIN": "6999"
	}
]
